[{"line":1,"elements":[{"start_timestamp":"2023-03-10T06:11:11.449Z","line":3,"name":"GET Demo 1","description":"","id":"get-demo-1","type":"scenario","keyword":"Scenario","steps":[{"name":"url 'https:\/\/reqres.in\/api\/unknown'","result":{"duration":847400,"status":"passed"},"match":{"location":"karate","arguments":[]},"keyword":"Given","line":4},{"name":"method GET","result":{"duration":492574600,"status":"passed"},"match":{"location":"karate","arguments":[]},"keyword":"When","line":5,"doc_string":{"content_type":"","value":"11:41:11.850 request:\n1 > GET https:\/\/reqres.in\/api\/unknown\n1 > Host: reqres.in\n1 > Connection: Keep-Alive\n1 > User-Agent: Apache-HttpClient\/4.5.13 (Java\/17.0.6)\n1 > Accept-Encoding: gzip,deflate\n\n\n11:41:12.093 response time in milliseconds: 241\n1 < 200\n1 < Date: Fri, 10 Mar 2023 06:11:10 GMT\n1 < Content-Type: application\/json; charset=utf-8\n1 < Transfer-Encoding: chunked\n1 < Connection: keep-alive\n1 < X-Powered-By: Express\n1 < Access-Control-Allow-Origin: *\n1 < Etag: W\/\"2c1-N6Rqerxquq2kgQhL51EiSg4x0R8\"\n1 < Via: 1.1 vegur\n1 < Cache-Control: max-age=14400\n1 < CF-Cache-Status: HIT\n1 < Age: 3706\n1 < Report-To: {\"endpoints\":[{\"url\":\"https:\\\/\\\/a.nel.cloudflare.com\\\/report\\\/v3?s=fEAEtebZNvHpUP9VMd6iumRF2At%2FosfuUpo4PvTErQpbSUYap0REZ%2FO1%2F5obTnLAZgljUEgDE893OP7deFOLkpMPX9gSU4yPZChVwMSTeySORNws5bcpvQSA3w%3D%3D\"}],\"group\":\"cf-nel\",\"max_age\":604800}\n1 < NEL: {\"success_fraction\":0,\"report_to\":\"cf-nel\",\"max_age\":604800}\n1 < Vary: Accept-Encoding\n1 < Server: cloudflare\n1 < CF-RAY: 7a5966153cc74afe-HYD\n{\"page\":1,\"per_page\":6,\"total\":12,\"total_pages\":2,\"data\":[{\"id\":1,\"name\":\"cerulean\",\"year\":2000,\"color\":\"#98B2D1\",\"pantone_value\":\"15-4020\"},{\"id\":2,\"name\":\"fuchsia rose\",\"year\":2001,\"color\":\"#C74375\",\"pantone_value\":\"17-2031\"},{\"id\":3,\"name\":\"true red\",\"year\":2002,\"color\":\"#BF1932\",\"pantone_value\":\"19-1664\"},{\"id\":4,\"name\":\"aqua sky\",\"year\":2003,\"color\":\"#7BC4C4\",\"pantone_value\":\"14-4811\"},{\"id\":5,\"name\":\"tigerlily\",\"year\":2004,\"color\":\"#E2583E\",\"pantone_value\":\"17-1456\"},{\"id\":6,\"name\":\"blue turquoise\",\"year\":2005,\"color\":\"#53B0AE\",\"pantone_value\":\"15-5217\"}],\"support\":{\"url\":\"https:\/\/reqres.in\/#support-heading\",\"text\":\"To keep ReqRes free, contributions towards server costs are appreciated!\"}}\n\n","line":5}},{"name":"status 200","result":{"duration":8400,"status":"passed"},"match":{"location":"karate","arguments":[]},"keyword":"Then","line":6},{"name":"print responseStatus","result":{"duration":26592200,"status":"passed"},"match":{"location":"karate","arguments":[]},"keyword":"And","line":7,"doc_string":{"content_type":"","value":"11:41:12.117 [print] 200 \n","line":7}},{"name":"print responseTime","result":{"duration":1420400,"status":"passed"},"match":{"location":"karate","arguments":[]},"keyword":"And","line":8,"doc_string":{"content_type":"","value":"11:41:12.125 [print] 241 \n","line":8}},{"name":"print responseHeaders","result":{"duration":2452200,"status":"passed"},"match":{"location":"karate","arguments":[]},"keyword":"And","line":9,"doc_string":{"content_type":"","value":"11:41:12.128 [print] {\n  \"Date\": [\n    \"Fri, 10 Mar 2023 06:11:10 GMT\"\n  ],\n  \"Content-Type\": [\n    \"application\/json; charset=utf-8\"\n  ],\n  \"Transfer-Encoding\": [\n    \"chunked\"\n  ],\n  \"Connection\": [\n    \"keep-alive\"\n  ],\n  \"X-Powered-By\": [\n    \"Express\"\n  ],\n  \"Access-Control-Allow-Origin\": [\n    \"*\"\n  ],\n  \"Etag\": [\n    \"W\/\\\"2c1-N6Rqerxquq2kgQhL51EiSg4x0R8\\\"\"\n  ],\n  \"Via\": [\n    \"1.1 vegur\"\n  ],\n  \"Cache-Control\": [\n    \"max-age=14400\"\n  ],\n  \"CF-Cache-Status\": [\n    \"HIT\"\n  ],\n  \"Age\": [\n    \"3706\"\n  ],\n  \"Report-To\": [\n    \"{\\\"endpoints\\\":[{\\\"url\\\":\\\"https:\\\\\/\\\\\/a.nel.cloudflare.com\\\\\/report\\\\\/v3?s=fEAEtebZNvHpUP9VMd6iumRF2At%2FosfuUpo4PvTErQpbSUYap0REZ%2FO1%2F5obTnLAZgljUEgDE893OP7deFOLkpMPX9gSU4yPZChVwMSTeySORNws5bcpvQSA3w%3D%3D\\\"}],\\\"group\\\":\\\"cf-nel\\\",\\\"max_age\\\":604800}\"\n  ],\n  \"NEL\": [\n    \"{\\\"success_fraction\\\":0,\\\"report_to\\\":\\\"cf-nel\\\",\\\"max_age\\\":604800}\"\n  ],\n  \"Vary\": [\n    \"Accept-Encoding\"\n  ],\n  \"Server\": [\n    \"cloudflare\"\n  ],\n  \"CF-RAY\": [\n    \"7a5966153cc74afe-HYD\"\n  ],\n  \"Set-Cookie\": [\n  ]\n}\n \n","line":9}},{"name":"print responseCookies","result":{"duration":1274100,"status":"passed"},"match":{"location":"karate","arguments":[]},"keyword":"And","line":10,"doc_string":{"content_type":"","value":"11:41:12.129 [print] {\n}\n \n","line":10}}],"tags":[]}],"name":"demo\/waas\/GetMethod.feature","description":"GET API","id":"get-api","keyword":"Feature","uri":"demo\/waas\/GetMethod.feature"}]